%YAML 1.1
%TAG !u! tag:unity3d.com,2011:
--- !u!1045 &1
EditorBuildSettings:
  m_ObjectHideFlags: 0
  serializedVersion: 2
  m_Scenes:
  - enabled: 1
    path: Assets/Myo Samples/Box On A Stick.unity
    guid: cf9d012834d514302b615bcc1e6edf7c
  m_configObjects: {}
